module main.go

go 1.16

require (
	github.com/StackExchange/wmi v0.0.0-20210224194228-fe8f1750fd46 // indirect
	github.com/go-ole/go-ole v1.2.5 // indirect
	github.com/satori/go.uuid v1.2.0 // indirect
	github.com/shirou/gopsutil v3.21.4+incompatible // indirect
	github.com/tklauser/go-sysconf v0.3.6 // indirect
	golang.org/x/sys v0.0.0-20210514084401-e8d321eab015 // indirect
	gopkg.in/ini.v1 v1.62.0 // indirect
)
